%YAML 1.1
%TAG !u! tag:unity3d.com,2011:
--- !u!1 &111673664801191215
GameObject:
  m_ObjectHideFlags: 0
  m_CorrespondingSourceObject: {fileID: 0}
  m_PrefabInstance: {fileID: 0}
  m_PrefabAsset: {fileID: 0}
  serializedVersion: 6
  m_Component:
  - component: {fileID: 1086158090598812262}
  - component: {fileID: 4328838415537357306}
  m_Layer: 31
  m_Name: Levels_Background
  m_TagString: Untagged
  m_Icon: {fileID: 0}
  m_NavMeshLayer: 0
  m_StaticEditorFlags: 0
  m_IsActive: 1
--- !u!4 &1086158090598812262
Transform:
  m_ObjectHideFlags: 0
  m_CorrespondingSourceObject: {fileID: 0}
  m_PrefabInstance: {fileID: 0}
  m_PrefabAsset: {fileID: 0}
  m_GameObject: {fileID: 111673664801191215}
  m_LocalRotation: {x: 0, y: 0, z: 0, w: 1}
  m_LocalPosition: {x: 0, y: 0, z: 0}
  m_LocalScale: {x: 1, y: 1, z: 1}
  m_Children:
  - {fileID: 1004175213400762591}
  m_Father: {fileID: 0}
  m_RootOrder: 0
  m_LocalEulerAnglesHint: {x: 0, y: 0, z: 0}
--- !u!156049354 &4328838415537357306
Grid:
  m_ObjectHideFlags: 0
  m_CorrespondingSourceObject: {fileID: 0}
  m_PrefabInstance: {fileID: 0}
  m_PrefabAsset: {fileID: 0}
  m_GameObject: {fileID: 111673664801191215}
  m_Enabled: 1
  m_CellSize: {x: 1, y: 1, z: 0}
  m_CellGap: {x: 0, y: 0, z: 0}
  m_CellLayout: 0
  m_CellSwizzle: 0
--- !u!1 &709543505829341544
GameObject:
  m_ObjectHideFlags: 0
  m_CorrespondingSourceObject: {fileID: 0}
  m_PrefabInstance: {fileID: 0}
  m_PrefabAsset: {fileID: 0}
  serializedVersion: 6
  m_Component:
  - component: {fileID: 1004175213400762591}
  - component: {fileID: 605239947397769483}
  - component: {fileID: 8501514436290472934}
  m_Layer: 31
  m_Name: Layer1
  m_TagString: Untagged
  m_Icon: {fileID: 0}
  m_NavMeshLayer: 0
  m_StaticEditorFlags: 0
  m_IsActive: 1
--- !u!4 &1004175213400762591
Transform:
  m_ObjectHideFlags: 0
  m_CorrespondingSourceObject: {fileID: 0}
  m_PrefabInstance: {fileID: 0}
  m_PrefabAsset: {fileID: 0}
  m_GameObject: {fileID: 709543505829341544}
  m_LocalRotation: {x: -0, y: -0, z: -0, w: 1}
  m_LocalPosition: {x: 0, y: 0, z: 0}
  m_LocalScale: {x: 1, y: 1, z: 1}
  m_Children: []
  m_Father: {fileID: 1086158090598812262}
  m_RootOrder: 0
  m_LocalEulerAnglesHint: {x: 0, y: 0, z: 0}
--- !u!1839735485 &605239947397769483
Tilemap:
  m_ObjectHideFlags: 0
  m_CorrespondingSourceObject: {fileID: 0}
  m_PrefabInstance: {fileID: 0}
  m_PrefabAsset: {fileID: 0}
  m_GameObject: {fileID: 709543505829341544}
  m_Enabled: 1
  m_Tiles:
  - first: {x: -1, y: -7, z: 0}
    second:
      m_TileIndex: 48
      m_TileSpriteIndex: 48
      m_TileMatrixIndex: 0
      m_TileColorIndex: 0
      m_ObjectToInstantiate: {fileID: 0}
      m_TileFlags: 1
      m_ColliderType: 1
  - first: {x: 0, y: -7, z: 0}
    second:
      m_TileIndex: 49
      m_TileSpriteIndex: 49
      m_TileMatrixIndex: 0
      m_TileColorIndex: 0
      m_ObjectToInstantiate: {fileID: 0}
      m_TileFlags: 1
      m_ColliderType: 1
  - first: {x: 1, y: -7, z: 0}
    second:
      m_TileIndex: 50
      m_TileSpriteIndex: 50
      m_TileMatrixIndex: 0
      m_TileColorIndex: 0
      m_ObjectToInstantiate: {fileID: 0}
      m_TileFlags: 1
      m_ColliderType: 1
  - first: {x: 2, y: -7, z: 0}
    second:
      m_TileIndex: 51
      m_TileSpriteIndex: 51
      m_TileMatrixIndex: 0
      m_TileColorIndex: 0
      m_ObjectToInstantiate: {fileID: 0}
      m_TileFlags: 1
      m_ColliderType: 1
  - first: {x: -1, y: -6, z: 0}
    second:
      m_TileIndex: 42
      m_TileSpriteIndex: 42
      m_TileMatrixIndex: 0
      m_TileColorIndex: 0
      m_ObjectToInstantiate: {fileID: 0}
      m_TileFlags: 1
      m_ColliderType: 1
  - first: {x: 0, y: -6, z: 0}
    second:
      m_TileIndex: 43
      m_TileSpriteIndex: 43
      m_TileMatrixIndex: 0
      m_TileColorIndex: 0
      m_ObjectToInstantiate: {fileID: 0}
      m_TileFlags: 1
      m_ColliderType: 1
  - first: {x: 1, y: -6, z: 0}
    second:
      m_TileIndex: 44
      m_TileSpriteIndex: 44
      m_TileMatrixIndex: 0
      m_TileColorIndex: 0
      m_ObjectToInstantiate: {fileID: 0}
      m_TileFlags: 1
      m_ColliderType: 1
  - first: {x: 2, y: -6, z: 0}
    second:
      m_TileIndex: 45
      m_TileSpriteIndex: 45
      m_TileMatrixIndex: 0
      m_TileColorIndex: 0
      m_ObjectToInstantiate: {fileID: 0}
      m_TileFlags: 1
      m_ColliderType: 1
  - first: {x: 3, y: -6, z: 0}
    second:
      m_TileIndex: 46
      m_TileSpriteIndex: 46
      m_TileMatrixIndex: 0
      m_TileColorIndex: 0
      m_ObjectToInstantiate: {fileID: 0}
      m_TileFlags: 1
      m_ColliderType: 1
  - first: {x: 4, y: -6, z: 0}
    second:
      m_TileIndex: 47
      m_TileSpriteIndex: 47
      m_TileMatrixIndex: 0
      m_TileColorIndex: 0
      m_ObjectToInstantiate: {fileID: 0}
      m_TileFlags: 1
      m_ColliderType: 1
  - first: {x: -1, y: -5, z: 0}
    second:
      m_TileIndex: 36
      m_TileSpriteIndex: 36
      m_TileMatrixIndex: 0
      m_TileColorIndex: 0
      m_ObjectToInstantiate: {fileID: 0}
      m_TileFlags: 1
      m_ColliderType: 2
  - first: {x: 0, y: -5, z: 0}
    second:
      m_TileIndex: 37
      m_TileSpriteIndex: 37
      m_TileMatrixIndex: 0
      m_TileColorIndex: 0
      m_ObjectToInstantiate: {fileID: 0}
      m_TileFlags: 1
      m_ColliderType: 2
  - first: {x: 1, y: -5, z: 0}
    second:
      m_TileIndex: 38
      m_TileSpriteIndex: 38
      m_TileMatrixIndex: 0
      m_TileColorIndex: 0
      m_ObjectToInstantiate: {fileID: 0}
      m_TileFlags: 1
      m_ColliderType: 1
  - first: {x: 2, y: -5, z: 0}
    second:
      m_TileIndex: 39
      m_TileSpriteIndex: 39
      m_TileMatrixIndex: 0
      m_TileColorIndex: 0
      m_ObjectToInstantiate: {fileID: 0}
      m_TileFlags: 1
      m_ColliderType: 1
  - first: {x: 3, y: -5, z: 0}
    second:
      m_TileIndex: 40
      m_TileSpriteIndex: 40
      m_TileMatrixIndex: 0
      m_TileColorIndex: 0
      m_ObjectToInstantiate: {fileID: 0}
      m_TileFlags: 1
      m_ColliderType: 1
  - first: {x: 4, y: -5, z: 0}
    second:
      m_TileIndex: 41
      m_TileSpriteIndex: 41
      m_TileMatrixIndex: 0
      m_TileColorIndex: 0
      m_ObjectToInstantiate: {fileID: 0}
      m_TileFlags: 1
      m_ColliderType: 1
  - first: {x: -1, y: -4, z: 0}
    second:
      m_TileIndex: 30
      m_TileSpriteIndex: 30
      m_TileMatrixIndex: 0
      m_TileColorIndex: 0
      m_ObjectToInstantiate: {fileID: 0}
      m_TileFlags: 1
      m_ColliderType: 1
  - first: {x: 0, y: -4, z: 0}
    second:
      m_TileIndex: 31
      m_TileSpriteIndex: 31
      m_TileMatrixIndex: 0
      m_TileColorIndex: 0
      m_ObjectToInstantiate: {fileID: 0}
      m_TileFlags: 1
      m_ColliderType: 1
  - first: {x: 1, y: -4, z: 0}
    second:
      m_TileIndex: 32
      m_TileSpriteIndex: 32
      m_TileMatrixIndex: 0
      m_TileColorIndex: 0
      m_ObjectToInstantiate: {fileID: 0}
      m_TileFlags: 1
      m_ColliderType: 1
  - first: {x: 2, y: -4, z: 0}
    second:
      m_TileIndex: 33
      m_TileSpriteIndex: 33
      m_TileMatrixIndex: 0
      m_TileColorIndex: 0
      m_ObjectToInstantiate: {fileID: 0}
      m_TileFlags: 1
      m_ColliderType: 1
  - first: {x: 3, y: -4, z: 0}
    second:
      m_TileIndex: 34
      m_TileSpriteIndex: 34
      m_TileMatrixIndex: 0
      m_TileColorIndex: 0
      m_ObjectToInstantiate: {fileID: 0}
      m_TileFlags: 1
      m_ColliderType: 1
  - first: {x: 4, y: -4, z: 0}
    second:
      m_TileIndex: 35
      m_TileSpriteIndex: 35
      m_TileMatrixIndex: 0
      m_TileColorIndex: 0
      m_ObjectToInstantiate: {fileID: 0}
      m_TileFlags: 1
      m_ColliderType: 1
  - first: {x: -1, y: -3, z: 0}
    second:
      m_TileIndex: 24
      m_TileSpriteIndex: 24
      m_TileMatrixIndex: 0
      m_TileColorIndex: 0
      m_ObjectToInstantiate: {fileID: 0}
      m_TileFlags: 1
      m_ColliderType: 1
  - first: {x: 0, y: -3, z: 0}
    second:
      m_TileIndex: 25
      m_TileSpriteIndex: 25
      m_TileMatrixIndex: 0
      m_TileColorIndex: 0
      m_ObjectToInstantiate: {fileID: 0}
      m_TileFlags: 1
      m_ColliderType: 1
  - first: {x: 1, y: -3, z: 0}
    second:
      m_TileIndex: 26
      m_TileSpriteIndex: 26
      m_TileMatrixIndex: 0
      m_TileColorIndex: 0
      m_ObjectToInstantiate: {fileID: 0}
      m_TileFlags: 1
      m_ColliderType: 1
  - first: {x: 2, y: -3, z: 0}
    second:
      m_TileIndex: 27
      m_TileSpriteIndex: 27
      m_TileMatrixIndex: 0
      m_TileColorIndex: 0
      m_ObjectToInstantiate: {fileID: 0}
      m_TileFlags: 1
      m_ColliderType: 1
  - first: {x: 3, y: -3, z: 0}
    second:
      m_TileIndex: 28
      m_TileSpriteIndex: 28
      m_TileMatrixIndex: 0
      m_TileColorIndex: 0
      m_ObjectToInstantiate: {fileID: 0}
      m_TileFlags: 1
      m_ColliderType: 1
  - first: {x: 4, y: -3, z: 0}
    second:
      m_TileIndex: 29
      m_TileSpriteIndex: 29
      m_TileMatrixIndex: 0
      m_TileColorIndex: 0
      m_ObjectToInstantiate: {fileID: 0}
      m_TileFlags: 1
      m_ColliderType: 1
  - first: {x: -1, y: -2, z: 0}
    second:
      m_TileIndex: 18
      m_TileSpriteIndex: 18
      m_TileMatrixIndex: 0
      m_TileColorIndex: 0
      m_ObjectToInstantiate: {fileID: 0}
      m_TileFlags: 1
      m_ColliderType: 1
  - first: {x: 0, y: -2, z: 0}
    second:
      m_TileIndex: 19
      m_TileSpriteIndex: 19
      m_TileMatrixIndex: 0
      m_TileColorIndex: 0
      m_ObjectToInstantiate: {fileID: 0}
      m_TileFlags: 1
      m_ColliderType: 1
  - first: {x: 1, y: -2, z: 0}
    second:
      m_TileIndex: 20
      m_TileSpriteIndex: 20
      m_TileMatrixIndex: 0
      m_TileColorIndex: 0
      m_ObjectToInstantiate: {fileID: 0}
      m_TileFlags: 1
      m_ColliderType: 1
  - first: {x: 2, y: -2, z: 0}
    second:
      m_TileIndex: 21
      m_TileSpriteIndex: 21
      m_TileMatrixIndex: 0
      m_TileColorIndex: 0
      m_ObjectToInstantiate: {fileID: 0}
      m_TileFlags: 1
      m_ColliderType: 1
  - first: {x: 3, y: -2, z: 0}
    second:
      m_TileIndex: 22
      m_TileSpriteIndex: 22
      m_TileMatrixIndex: 0
      m_TileColorIndex: 0
      m_ObjectToInstantiate: {fileID: 0}
      m_TileFlags: 1
      m_ColliderType: 1
  - first: {x: 4, y: -2, z: 0}
    second:
      m_TileIndex: 23
      m_TileSpriteIndex: 23
      m_TileMatrixIndex: 0
      m_TileColorIndex: 0
      m_ObjectToInstantiate: {fileID: 0}
      m_TileFlags: 1
      m_ColliderType: 1
  - first: {x: -1, y: -1, z: 0}
    second:
      m_TileIndex: 12
      m_TileSpriteIndex: 12
      m_TileMatrixIndex: 0
      m_TileColorIndex: 0
      m_ObjectToInstantiate: {fileID: 0}
      m_TileFlags: 1
      m_ColliderType: 1
  - first: {x: 0, y: -1, z: 0}
    second:
      m_TileIndex: 13
      m_TileSpriteIndex: 13
      m_TileMatrixIndex: 0
      m_TileColorIndex: 0
      m_ObjectToInstantiate: {fileID: 0}
      m_TileFlags: 1
      m_ColliderType: 1
  - first: {x: 1, y: -1, z: 0}
    second:
      m_TileIndex: 14
      m_TileSpriteIndex: 14
      m_TileMatrixIndex: 0
      m_TileColorIndex: 0
      m_ObjectToInstantiate: {fileID: 0}
      m_TileFlags: 1
      m_ColliderType: 1
  - first: {x: 2, y: -1, z: 0}
    second:
      m_TileIndex: 15
      m_TileSpriteIndex: 15
      m_TileMatrixIndex: 0
      m_TileColorIndex: 0
      m_ObjectToInstantiate: {fileID: 0}
      m_TileFlags: 1
      m_ColliderType: 1
  - first: {x: 3, y: -1, z: 0}
    second:
      m_TileIndex: 16
      m_TileSpriteIndex: 16
      m_TileMatrixIndex: 0
      m_TileColorIndex: 0
      m_ObjectToInstantiate: {fileID: 0}
      m_TileFlags: 1
      m_ColliderType: 1
  - first: {x: 4, y: -1, z: 0}
    second:
      m_TileIndex: 17
      m_TileSpriteIndex: 17
      m_TileMatrixIndex: 0
      m_TileColorIndex: 0
      m_ObjectToInstantiate: {fileID: 0}
      m_TileFlags: 1
      m_ColliderType: 1
  - first: {x: -1, y: 0, z: 0}
    second:
      m_TileIndex: 6
      m_TileSpriteIndex: 6
      m_TileMatrixIndex: 0
      m_TileColorIndex: 0
      m_ObjectToInstantiate: {fileID: 0}
      m_TileFlags: 1
      m_ColliderType: 1
  - first: {x: 0, y: 0, z: 0}
    second:
      m_TileIndex: 7
      m_TileSpriteIndex: 7
      m_TileMatrixIndex: 0
      m_TileColorIndex: 0
      m_ObjectToInstantiate: {fileID: 0}
      m_TileFlags: 1
      m_ColliderType: 1
  - first: {x: 1, y: 0, z: 0}
    second:
      m_TileIndex: 8
      m_TileSpriteIndex: 8
      m_TileMatrixIndex: 0
      m_TileColorIndex: 0
      m_ObjectToInstantiate: {fileID: 0}
      m_TileFlags: 1
      m_ColliderType: 1
  - first: {x: 2, y: 0, z: 0}
    second:
      m_TileIndex: 9
      m_TileSpriteIndex: 9
      m_TileMatrixIndex: 0
      m_TileColorIndex: 0
      m_ObjectToInstantiate: {fileID: 0}
      m_TileFlags: 1
      m_ColliderType: 1
  - first: {x: 3, y: 0, z: 0}
    second:
      m_TileIndex: 10
      m_TileSpriteIndex: 10
      m_TileMatrixIndex: 0
      m_TileColorIndex: 0
      m_ObjectToInstantiate: {fileID: 0}
      m_TileFlags: 1
      m_ColliderType: 1
  - first: {x: 4, y: 0, z: 0}
    second:
      m_TileIndex: 11
      m_TileSpriteIndex: 11
      m_TileMatrixIndex: 0
      m_TileColorIndex: 0
      m_ObjectToInstantiate: {fileID: 0}
      m_TileFlags: 1
      m_ColliderType: 1
  - first: {x: -1, y: 1, z: 0}
    second:
      m_TileIndex: 0
      m_TileSpriteIndex: 0
      m_TileMatrixIndex: 0
      m_TileColorIndex: 0
      m_ObjectToInstantiate: {fileID: 0}
      m_TileFlags: 1
      m_ColliderType: 1
  - first: {x: 0, y: 1, z: 0}
    second:
      m_TileIndex: 1
      m_TileSpriteIndex: 1
      m_TileMatrixIndex: 0
      m_TileColorIndex: 0
      m_ObjectToInstantiate: {fileID: 0}
      m_TileFlags: 1
      m_ColliderType: 1
  - first: {x: 1, y: 1, z: 0}
    second:
      m_TileIndex: 2
      m_TileSpriteIndex: 2
      m_TileMatrixIndex: 0
      m_TileColorIndex: 0
      m_ObjectToInstantiate: {fileID: 0}
      m_TileFlags: 1
      m_ColliderType: 1
  - first: {x: 2, y: 1, z: 0}
    second:
      m_TileIndex: 3
      m_TileSpriteIndex: 3
      m_TileMatrixIndex: 0
      m_TileColorIndex: 0
      m_ObjectToInstantiate: {fileID: 0}
      m_TileFlags: 1
      m_ColliderType: 1
  - first: {x: 3, y: 1, z: 0}
    second:
      m_TileIndex: 4
      m_TileSpriteIndex: 4
      m_TileMatrixIndex: 0
      m_TileColorIndex: 0
      m_ObjectToInstantiate: {fileID: 0}
      m_TileFlags: 1
      m_ColliderType: 1
  - first: {x: 4, y: 1, z: 0}
    second:
      m_TileIndex: 5
      m_TileSpriteIndex: 5
      m_TileMatrixIndex: 0
      m_TileColorIndex: 0
      m_ObjectToInstantiate: {fileID: 0}
      m_TileFlags: 1
      m_ColliderType: 1
  m_AnimatedTiles: {}
  m_TileAssetArray:
  - m_RefCount: 1
    m_Data: {fileID: 11400000, guid: 15a7d688cf74b5148b452b8055ea6ef6, type: 2}
  - m_RefCount: 1
    m_Data: {fileID: 11400000, guid: 07f3a59bba5bddd4c90240b8a07dc51d, type: 2}
  - m_RefCount: 1
    m_Data: {fileID: 11400000, guid: 6b57f506b11a8f6449490e214d8b37c8, type: 2}
  - m_RefCount: 1
    m_Data: {fileID: 11400000, guid: 07fd6ae2bb40b7d4e87f392353e28216, type: 2}
  - m_RefCount: 1
    m_Data: {fileID: 11400000, guid: a1c8b00243b0975459a84cfe86c906e2, type: 2}
  - m_RefCount: 1
    m_Data: {fileID: 11400000, guid: 7b79dbcfb5f24504f8f4cc1509ed95fa, type: 2}
  - m_RefCount: 1
    m_Data: {fileID: 11400000, guid: 48e2c81ff76e4a54d9d3fa3c5b4cb31a, type: 2}
  - m_RefCount: 1
    m_Data: {fileID: 11400000, guid: d67ed64b9ccf9924c8bd2fe456c663db, type: 2}
  - m_RefCount: 1
    m_Data: {fileID: 11400000, guid: e20e691c65f7445419fe92fbaa08156a, type: 2}
  - m_RefCount: 1
    m_Data: {fileID: 11400000, guid: f6d774b8ff5d3f34ea721189dbab5a02, type: 2}
  - m_RefCount: 1
    m_Data: {fileID: 11400000, guid: 844be1bf4dd565c448f186e8583146a1, type: 2}
  - m_RefCount: 1
    m_Data: {fileID: 11400000, guid: f071d1e1b32ef714aa72bf1dc32847d6, type: 2}
  - m_RefCount: 1
    m_Data: {fileID: 11400000, guid: b2242bd7d6c5f0141979c0818b28cce3, type: 2}
  - m_RefCount: 1
    m_Data: {fileID: 11400000, guid: 19e8f593ea509d94dbc3b7d2c5edb251, type: 2}
  - m_RefCount: 1
    m_Data: {fileID: 11400000, guid: bb48ea4cfbda963499c02688c09cbfcd, type: 2}
  - m_RefCount: 1
    m_Data: {fileID: 11400000, guid: aaac3d64fe198354b925f60f329c0a8f, type: 2}
  - m_RefCount: 1
    m_Data: {fileID: 11400000, guid: 32724ddfbba72cb409c9a58047954be9, type: 2}
  - m_RefCount: 1
    m_Data: {fileID: 11400000, guid: 0bc5f89f096685c4698eaf5dd3cf0f53, type: 2}
  - m_RefCount: 1
    m_Data: {fileID: 11400000, guid: ef6001532d9efaa489b9e1f9849d784b, type: 2}
  - m_RefCount: 1
    m_Data: {fileID: 11400000, guid: 869c4b0cd061ea44e8d686de44797b44, type: 2}
  - m_RefCount: 1
    m_Data: {fileID: 11400000, guid: 70c67714eb74e184ea7c366275f6ec17, type: 2}
  - m_RefCount: 1
    m_Data: {fileID: 11400000, guid: b05e088c703177c45b123b8144c42502, type: 2}
  - m_RefCount: 1
    m_Data: {fileID: 11400000, guid: d34fc11c49938eb49a723b2de142c677, type: 2}
  - m_RefCount: 1
    m_Data: {fileID: 11400000, guid: 7700d4c4d45bfec4897b4ed31f0c2598, type: 2}
  - m_RefCount: 1
    m_Data: {fileID: 11400000, guid: b0f63e3746b7b3243861bfd03562e6ed, type: 2}
  - m_RefCount: 1
    m_Data: {fileID: 11400000, guid: aacb374c84ff79a40a1adfd0176b6114, type: 2}
  - m_RefCount: 1
    m_Data: {fileID: 11400000, guid: d728ebb1c68a6e04f8b9ccc3bc9ecd4b, type: 2}
  - m_RefCount: 1
    m_Data: {fileID: 11400000, guid: a8a72137597403f41a36b7b18d1d9de1, type: 2}
  - m_RefCount: 1
    m_Data: {fileID: 11400000, guid: 70ab8216cdc1d8d41aee0419c94247a8, type: 2}
  - m_RefCount: 1
    m_Data: {fileID: 11400000, guid: a44f6dabe3622db4e8e7881925158376, type: 2}
  - m_RefCount: 1
    m_Data: {fileID: 11400000, guid: 23e2452aec38b1049810b8afa9ff2d50, type: 2}
  - m_RefCount: 1
    m_Data: {fileID: 11400000, guid: 4b9c982dce847434a8ca2f9d7a83180a, type: 2}
  - m_RefCount: 1
    m_Data: {fileID: 11400000, guid: 16cb0e7d411732b498a9b95a0c01bcbb, type: 2}
  - m_RefCount: 1
    m_Data: {fileID: 11400000, guid: f401f69759319ea4688ff08a47e594ba, type: 2}
  - m_RefCount: 1
    m_Data: {fileID: 11400000, guid: 7996d023fa7c19b4281d2c260479df17, type: 2}
  - m_RefCount: 1
    m_Data: {fileID: 11400000, guid: d3ea1d2bee9105648902d0c72ea14efa, type: 2}
  - m_RefCount: 1
    m_Data: {fileID: 11400000, guid: aafbc034291b23244ae8dfc492027dcf, type: 2}
  - m_RefCount: 1
    m_Data: {fileID: 11400000, guid: 34189791e2d741c4c82e6ad59afd9107, type: 2}
  - m_RefCount: 1
    m_Data: {fileID: 11400000, guid: de243df3897a96540a69aa75caaf7860, type: 2}
  - m_RefCount: 1
    m_Data: {fileID: 11400000, guid: 93090455ae09d25409f784a1ef207393, type: 2}
  - m_RefCount: 1
    m_Data: {fileID: 11400000, guid: c0c18f8250267ef4c90850dc8756dfb0, type: 2}
  - m_RefCount: 1
    m_Data: {fileID: 11400000, guid: 854c047c5ddd46847aaef4f93b0f339f, type: 2}
  - m_RefCount: 1
    m_Data: {fileID: 11400000, guid: 91b66c9d6a87b564bbe1988d4548a467, type: 2}
  - m_RefCount: 1
    m_Data: {fileID: 11400000, guid: ef7ad1edf1e7c2f4ea0606f93420de76, type: 2}
  - m_RefCount: 1
    m_Data: {fileID: 11400000, guid: 8aae3edee4e16344db4e1b2c2ec6f00e, type: 2}
  - m_RefCount: 1
    m_Data: {fileID: 11400000, guid: afb71565339b47441b4720826c1ecd3a, type: 2}
  - m_RefCount: 1
    m_Data: {fileID: 11400000, guid: 2b7243773ab6a9a47bcb46743569d228, type: 2}
  - m_RefCount: 1
    m_Data: {fileID: 11400000, guid: 9a84cc18c5b55784b93fc9086f57e079, type: 2}
  - m_RefCount: 1
    m_Data: {fileID: 11400000, guid: 5ae6246f38eaf4d4fbd53e3469b817f8, type: 2}
  - m_RefCount: 1
    m_Data: {fileID: 11400000, guid: 0e043dbca2d3f4a41885259963c44d7a, type: 2}
  - m_RefCount: 1
    m_Data: {fileID: 11400000, guid: 2ebae1f942ed90b4b80b7b6f32641a58, type: 2}
  - m_RefCount: 1
    m_Data: {fileID: 11400000, guid: 5a45720b4ba213749bbe703b691d9203, type: 2}
  m_TileSpriteArray:
  - m_RefCount: 1
    m_Data: {fileID: 5663061954668274717, guid: 813c4afa4f97bca40a4157591582731d,
      type: 3}
  - m_RefCount: 1
    m_Data: {fileID: 6007627129536956325, guid: 813c4afa4f97bca40a4157591582731d,
      type: 3}
  - m_RefCount: 1
    m_Data: {fileID: -7486092956772349302, guid: 813c4afa4f97bca40a4157591582731d,
      type: 3}
  - m_RefCount: 1
    m_Data: {fileID: -3627264120405484348, guid: 813c4afa4f97bca40a4157591582731d,
      type: 3}
  - m_RefCount: 1
    m_Data: {fileID: -4815885190406460031, guid: 813c4afa4f97bca40a4157591582731d,
      type: 3}
  - m_RefCount: 1
    m_Data: {fileID: 7477116942032994148, guid: 813c4afa4f97bca40a4157591582731d,
      type: 3}
  - m_RefCount: 1
    m_Data: {fileID: -396035294860175646, guid: 813c4afa4f97bca40a4157591582731d,
      type: 3}
  - m_RefCount: 1
    m_Data: {fileID: 8233071653059976297, guid: 813c4afa4f97bca40a4157591582731d,
      type: 3}
  - m_RefCount: 1
    m_Data: {fileID: -7775419718026629507, guid: 813c4afa4f97bca40a4157591582731d,
      type: 3}
  - m_RefCount: 1
    m_Data: {fileID: -781294158744790408, guid: 813c4afa4f97bca40a4157591582731d,
      type: 3}
  - m_RefCount: 1
    m_Data: {fileID: 9061651696941551919, guid: 813c4afa4f97bca40a4157591582731d,
      type: 3}
  - m_RefCount: 1
    m_Data: {fileID: -6985117363303071740, guid: 813c4afa4f97bca40a4157591582731d,
      type: 3}
  - m_RefCount: 1
    m_Data: {fileID: 8642771837104280003, guid: 813c4afa4f97bca40a4157591582731d,
      type: 3}
  - m_RefCount: 1
    m_Data: {fileID: -1762573714345474896, guid: 813c4afa4f97bca40a4157591582731d,
      type: 3}
  - m_RefCount: 1
    m_Data: {fileID: 11442893378838041, guid: 813c4afa4f97bca40a4157591582731d, type: 3}
  - m_RefCount: 1
    m_Data: {fileID: -317771678647371661, guid: 813c4afa4f97bca40a4157591582731d,
      type: 3}
  - m_RefCount: 1
    m_Data: {fileID: -2426843357703420916, guid: 813c4afa4f97bca40a4157591582731d,
      type: 3}
  - m_RefCount: 1
    m_Data: {fileID: -3642208251427772964, guid: 813c4afa4f97bca40a4157591582731d,
      type: 3}
  - m_RefCount: 1
    m_Data: {fileID: 3985221016008397036, guid: 813c4afa4f97bca40a4157591582731d,
      type: 3}
  - m_RefCount: 1
    m_Data: {fileID: 5778961287088506303, guid: 813c4afa4f97bca40a4157591582731d,
      type: 3}
  - m_RefCount: 1
    m_Data: {fileID: 8758155216525550727, guid: 813c4afa4f97bca40a4157591582731d,
      type: 3}
  - m_RefCount: 1
    m_Data: {fileID: 6116080786932476827, guid: 813c4afa4f97bca40a4157591582731d,
      type: 3}
  - m_RefCount: 1
    m_Data: {fileID: -1385786070971223102, guid: 813c4afa4f97bca40a4157591582731d,
      type: 3}
  - m_RefCount: 1
    m_Data: {fileID: -538331831730588137, guid: 813c4afa4f97bca40a4157591582731d,
      type: 3}
  - m_RefCount: 1
    m_Data: {fileID: -6923900727490736670, guid: 813c4afa4f97bca40a4157591582731d,
      type: 3}
  - m_RefCount: 1
    m_Data: {fileID: 5043307788359985916, guid: 813c4afa4f97bca40a4157591582731d,
      type: 3}
  - m_RefCount: 1
    m_Data: {fileID: -5587653796134901919, guid: 813c4afa4f97bca40a4157591582731d,
      type: 3}
  - m_RefCount: 1
    m_Data: {fileID: -4272949958406870782, guid: 813c4afa4f97bca40a4157591582731d,
      type: 3}
  - m_RefCount: 1
    m_Data: {fileID: -4827537604736492380, guid: 813c4afa4f97bca40a4157591582731d,
      type: 3}
  - m_RefCount: 1
    m_Data: {fileID: 4021183171127385890, guid: 813c4afa4f97bca40a4157591582731d,
      type: 3}
  - m_RefCount: 1
    m_Data: {fileID: -7967309640338825673, guid: 813c4afa4f97bca40a4157591582731d,
      type: 3}
  - m_RefCount: 1
    m_Data: {fileID: 1237908169197521079, guid: 813c4afa4f97bca40a4157591582731d,
      type: 3}
  - m_RefCount: 1
    m_Data: {fileID: 5018706250341604807, guid: 813c4afa4f97bca40a4157591582731d,
      type: 3}
  - m_RefCount: 1
    m_Data: {fileID: -6468910726198660926, guid: 813c4afa4f97bca40a4157591582731d,
      type: 3}
  - m_RefCount: 1
    m_Data: {fileID: -6157781805458569218, guid: 813c4afa4f97bca40a4157591582731d,
      type: 3}
  - m_RefCount: 1
    m_Data: {fileID: 3048538982666575687, guid: 813c4afa4f97bca40a4157591582731d,
      type: 3}
  - m_RefCount: 1
    m_Data: {fileID: -1518774645772049220, guid: 813c4afa4f97bca40a4157591582731d,
      type: 3}
  - m_RefCount: 1
    m_Data: {fileID: -3697150339598545061, guid: 813c4afa4f97bca40a4157591582731d,
      type: 3}
  - m_RefCount: 1
    m_Data: {fileID: -7131273655155896711, guid: 813c4afa4f97bca40a4157591582731d,
      type: 3}
  - m_RefCount: 1
    m_Data: {fileID: 8621815960616643281, guid: 813c4afa4f97bca40a4157591582731d,
      type: 3}
  - m_RefCount: 1
    m_Data: {fileID: -6205172343615221245, guid: 813c4afa4f97bca40a4157591582731d,
      type: 3}
  - m_RefCount: 1
    m_Data: {fileID: 7654806567737475841, guid: 813c4afa4f97bca40a4157591582731d,
      type: 3}
  - m_RefCount: 1
    m_Data: {fileID: -1702772467812443111, guid: 813c4afa4f97bca40a4157591582731d,
      type: 3}
  - m_RefCount: 1
    m_Data: {fileID: 576860350140093190, guid: 813c4afa4f97bca40a4157591582731d, type: 3}
  - m_RefCount: 1
    m_Data: {fileID: 5547708042039842948, guid: 813c4afa4f97bca40a4157591582731d,
      type: 3}
  - m_RefCount: 1
    m_Data: {fileID: -6017339223957375553, guid: 813c4afa4f97bca40a4157591582731d,
      type: 3}
  - m_RefCount: 1
    m_Data: {fileID: -4116040823106012581, guid: 813c4afa4f97bca40a4157591582731d,
      type: 3}
  - m_RefCount: 1
    m_Data: {fileID: 6732870910531023, guid: 813c4afa4f97bca40a4157591582731d, type: 3}
  - m_RefCount: 1
    m_Data: {fileID: -6831599063569703212, guid: 813c4afa4f97bca40a4157591582731d,
      type: 3}
  - m_RefCount: 1
    m_Data: {fileID: -5016527918528981960, guid: 813c4afa4f97bca40a4157591582731d,
      type: 3}
  - m_RefCount: 1
    m_Data: {fileID: 3885819281616729284, guid: 813c4afa4f97bca40a4157591582731d,
      type: 3}
  - m_RefCount: 1
    m_Data: {fileID: 9192141375248400463, guid: 813c4afa4f97bca40a4157591582731d,
      type: 3}
  m_TileMatrixArray:
  - m_RefCount: 52
    m_Data:
      e00: 1
      e01: 0
      e02: 0
      e03: 0
      e10: 0
      e11: 1
      e12: 0
      e13: 0
      e20: 0
      e21: 0
      e22: 1
      e23: 0
      e30: 0
      e31: 0
      e32: 0
      e33: 1
  m_TileColorArray:
  - m_RefCount: 52
    m_Data: {r: 1, g: 1, b: 1, a: 1}
  m_AnimationFrameRate: 1
  m_Color: {r: 1, g: 1, b: 1, a: 1}
  m_Origin: {x: -1, y: -7, z: 0}
  m_Size: {x: 6, y: 9, z: 1}
  m_TileAnchor: {x: 0.5, y: 0.5, z: 0}
  m_TileOrientation: 0
  m_TileOrientationMatrix:
    e00: 1
    e01: 0
    e02: 0
    e03: 0
    e10: 0
    e11: 1
    e12: 0
    e13: 0
    e20: 0
    e21: 0
    e22: 1
    e23: 0
    e30: 0
    e31: 0
    e32: 0
    e33: 1
--- !u!483693784 &8501514436290472934
TilemapRenderer:
  m_ObjectHideFlags: 0
  m_CorrespondingSourceObject: {fileID: 0}
  m_PrefabInstance: {fileID: 0}
  m_PrefabAsset: {fileID: 0}
  m_GameObject: {fileID: 709543505829341544}
  m_Enabled: 0
  m_CastShadows: 0
  m_ReceiveShadows: 0
  m_DynamicOccludee: 0
  m_MotionVectors: 1
  m_LightProbeUsage: 0
  m_ReflectionProbeUsage: 0
  m_RenderingLayerMask: 1
  m_RendererPriority: 0
  m_Materials:
  - {fileID: 10754, guid: 0000000000000000f000000000000000, type: 0}
  m_StaticBatchInfo:
    firstSubMesh: 0
    subMeshCount: 0
  m_StaticBatchRoot: {fileID: 0}
  m_ProbeAnchor: {fileID: 0}
  m_LightProbeVolumeOverride: {fileID: 0}
  m_ScaleInLightmap: 1
  m_ReceiveGI: 1
  m_PreserveUVs: 0
  m_IgnoreNormalsForChartDetection: 0
  m_ImportantGI: 0
  m_StitchLightmapSeams: 1
  m_SelectedEditorRenderState: 0
  m_MinimumChartSize: 4
  m_AutoUVMaxDistance: 0.5
  m_AutoUVMaxAngle: 89
  m_LightmapParameters: {fileID: 0}
  m_SortingLayerID: 0
  m_SortingLayer: 0
  m_SortingOrder: 0
  m_ChunkSize: {x: 32, y: 32, z: 32}
  m_ChunkCullingBounds: {x: 0, y: 0, z: 0}
  m_MaxChunkCount: 16
  m_MaxFrameAge: 16
  m_SortOrder: 0
  m_Mode: 0
  m_DetectChunkCullingBounds: 0
  m_MaskInteraction: 0
--- !u!114 &-5294654742436172094
MonoBehaviour:
  m_ObjectHideFlags: 0
  m_CorrespondingSourceObject: {fileID: 0}
  m_PrefabInstance: {fileID: 0}
  m_PrefabAsset: {fileID: 0}
  m_GameObject: {fileID: 0}
  m_Enabled: 1
  m_EditorHideFlags: 0
  m_Script: {fileID: 12395, guid: 0000000000000000e000000000000000, type: 0}
  m_Name: Palette Settings
  m_EditorClassIdentifier: 
  cellSizing: 0
